simulation/qsim/FrequencyDetector.msim.vcd
$comment
	File created using the following command:
		vcd file FrequencyDetector.msim.vcd -direction
$end
$date
	Thu Nov 09 13:43:59 2023
$end
$version
	ModelSim Version 2020.1
$end
$timescale
	1ps
$end

$scope module FrequencyDetector_vlg_vec_tst $end
$var reg 1 ! device_clock $end
$var reg 1 " input_clock $end
$var wire 1 # cycle_count [3] $end
$var wire 1 $ cycle_count [2] $end
$var wire 1 % cycle_count [1] $end
$var wire 1 & cycle_count [0] $end
$var wire 1 ' frequency [3] $end
$var wire 1 ( frequency [2] $end
$var wire 1 ) frequency [1] $end
$var wire 1 * frequency [0] $end

$scope module i1 $end
$var wire 1 + gnd $end
$var wire 1 , vcc $end
$var wire 1 - unknown $end
$var tri1 1 . devclrn $end
$var tri1 1 / devpor $end
$var tri1 1 0 devoe $end
$var wire 1 1 ~QUARTUS_CREATED_GND~I_combout $end
$var wire 1 2 ~QUARTUS_CREATED_UNVM~~busy $end
$var wire 1 3 ~QUARTUS_CREATED_ADC1~~eoc $end
$var wire 1 4 ~QUARTUS_CREATED_ADC2~~eoc $end
$var wire 1 5 cycle_count[0]~output_o $end
$var wire 1 6 cycle_count[1]~output_o $end
$var wire 1 7 cycle_count[2]~output_o $end
$var wire 1 8 cycle_count[3]~output_o $end
$var wire 1 9 frequency[0]~output_o $end
$var wire 1 : frequency[1]~output_o $end
$var wire 1 ; frequency[2]~output_o $end
$var wire 1 < frequency[3]~output_o $end
$var wire 1 = input_clock~input_o $end
$var wire 1 > input_clock~inputclkctrl_outclk $end
$var wire 1 ? device_clock~input_o $end
$var wire 1 @ device_clock~inputclkctrl_outclk $end
$var wire 1 A comb_3|comb_7|count_reg~1_combout $end
$var wire 1 B comb_3|comb_7|count_reg[1]~feeder_combout $end
$var wire 1 C comb_3|comb_7|Add0~0_combout $end
$var wire 1 D comb_3|comb_7|count_reg~2_combout $end
$var wire 1 E comb_3|comb_7|count_reg~3_combout $end
$var wire 1 F comb_3|comb_7|count_reg~4_combout $end
$var wire 1 G comb_3|comb_7|count_reg[3]~feeder_combout $end
$var wire 1 H comb_3|comb_7|Equal0~0_combout $end
$var wire 1 I comb_3|comb_7|count_reg~0_combout $end
$var wire 1 J comb_3|comb_7|count_reg[0]~feeder_combout $end
$var wire 1 K Div0|auto_generated|divider|divider|op_1~0_combout $end
$var wire 1 L Div0|auto_generated|divider|divider|op_1~1 $end
$var wire 1 M Div0|auto_generated|divider|divider|op_1~2_combout $end
$var wire 1 N Div0|auto_generated|divider|divider|StageOut[12]~0_combout $end
$var wire 1 O Div0|auto_generated|divider|divider|add_sub_3_result_int[1]~1_cout $end
$var wire 1 P Div0|auto_generated|divider|divider|add_sub_3_result_int[2]~3 $end
$var wire 1 Q Div0|auto_generated|divider|divider|add_sub_3_result_int[3]~5 $end
$var wire 1 R Div0|auto_generated|divider|divider|add_sub_3_result_int[4]~6_combout $end
$var wire 1 S Div0|auto_generated|divider|divider|add_sub_3_result_int[3]~4_combout $end
$var wire 1 T Div0|auto_generated|divider|divider|StageOut[18]~1_combout $end
$var wire 1 U Div0|auto_generated|divider|divider|add_sub_3_result_int[2]~2_combout $end
$var wire 1 V Div0|auto_generated|divider|divider|StageOut[17]~2_combout $end
$var wire 1 W Div0|auto_generated|divider|divider|StageOut[16]~3_combout $end
$var wire 1 X frequency_reg[0]~2_cout $end
$var wire 1 Y frequency_reg[0]~4_cout $end
$var wire 1 Z frequency_reg[0]~6_cout $end
$var wire 1 [ frequency_reg[0]~7_combout $end
$var wire 1 \ Div0|auto_generated|divider|divider|selnose[6]~0_combout $end
$var wire 1 ] frequency_reg [3] $end
$var wire 1 ^ frequency_reg [2] $end
$var wire 1 _ frequency_reg [1] $end
$var wire 1 ` frequency_reg [0] $end
$var wire 1 a comb_3|count2_reg [3] $end
$var wire 1 b comb_3|count2_reg [2] $end
$var wire 1 c comb_3|count2_reg [1] $end
$var wire 1 d comb_3|count2_reg [0] $end
$var wire 1 e comb_3|comb_7|count_reg [3] $end
$var wire 1 f comb_3|comb_7|count_reg [2] $end
$var wire 1 g comb_3|comb_7|count_reg [1] $end
$var wire 1 h comb_3|comb_7|count_reg [0] $end
$var wire 1 i Div0|auto_generated|divider|divider|StageOut [24] $end
$var wire 1 j Div0|auto_generated|divider|divider|StageOut [23] $end
$var wire 1 k Div0|auto_generated|divider|divider|StageOut [22] $end
$var wire 1 l Div0|auto_generated|divider|divider|StageOut [21] $end
$var wire 1 m Div0|auto_generated|divider|divider|StageOut [20] $end
$var wire 1 n Div0|auto_generated|divider|divider|StageOut [19] $end
$var wire 1 o Div0|auto_generated|divider|divider|StageOut [18] $end
$var wire 1 p Div0|auto_generated|divider|divider|StageOut [17] $end
$var wire 1 q Div0|auto_generated|divider|divider|StageOut [16] $end
$var wire 1 r Div0|auto_generated|divider|divider|StageOut [15] $end
$var wire 1 s Div0|auto_generated|divider|divider|StageOut [14] $end
$var wire 1 t Div0|auto_generated|divider|divider|StageOut [13] $end
$var wire 1 u Div0|auto_generated|divider|divider|StageOut [12] $end
$var wire 1 v Div0|auto_generated|divider|divider|StageOut [11] $end
$var wire 1 w Div0|auto_generated|divider|divider|StageOut [10] $end
$var wire 1 x Div0|auto_generated|divider|divider|StageOut [9] $end
$var wire 1 y Div0|auto_generated|divider|divider|StageOut [8] $end
$var wire 1 z Div0|auto_generated|divider|divider|StageOut [7] $end
$var wire 1 { Div0|auto_generated|divider|divider|StageOut [6] $end
$var wire 1 | Div0|auto_generated|divider|divider|StageOut [5] $end
$var wire 1 } Div0|auto_generated|divider|divider|StageOut [4] $end
$var wire 1 ~ Div0|auto_generated|divider|divider|StageOut [3] $end
$var wire 1 !! Div0|auto_generated|divider|divider|StageOut [2] $end
$var wire 1 "! Div0|auto_generated|divider|divider|StageOut [1] $end
$var wire 1 #! Div0|auto_generated|divider|divider|StageOut [0] $end
$var wire 1 $! Div0|auto_generated|divider|divider|selnose [29] $end
$var wire 1 %! Div0|auto_generated|divider|divider|selnose [28] $end
$var wire 1 &! Div0|auto_generated|divider|divider|selnose [27] $end
$var wire 1 '! Div0|auto_generated|divider|divider|selnose [26] $end
$var wire 1 (! Div0|auto_generated|divider|divider|selnose [25] $end
$var wire 1 )! Div0|auto_generated|divider|divider|selnose [24] $end
$var wire 1 *! Div0|auto_generated|divider|divider|selnose [23] $end
$var wire 1 +! Div0|auto_generated|divider|divider|selnose [22] $end
$var wire 1 ,! Div0|auto_generated|divider|divider|selnose [21] $end
$var wire 1 -! Div0|auto_generated|divider|divider|selnose [20] $end
$var wire 1 .! Div0|auto_generated|divider|divider|selnose [19] $end
$var wire 1 /! Div0|auto_generated|divider|divider|selnose [18] $end
$var wire 1 0! Div0|auto_generated|divider|divider|selnose [17] $end
$var wire 1 1! Div0|auto_generated|divider|divider|selnose [16] $end
$var wire 1 2! Div0|auto_generated|divider|divider|selnose [15] $end
$var wire 1 3! Div0|auto_generated|divider|divider|selnose [14] $end
$var wire 1 4! Div0|auto_generated|divider|divider|selnose [13] $end
$var wire 1 5! Div0|auto_generated|divider|divider|selnose [12] $end
$var wire 1 6! Div0|auto_generated|divider|divider|selnose [11] $end
$var wire 1 7! Div0|auto_generated|divider|divider|selnose [10] $end
$var wire 1 8! Div0|auto_generated|divider|divider|selnose [9] $end
$var wire 1 9! Div0|auto_generated|divider|divider|selnose [8] $end
$var wire 1 :! Div0|auto_generated|divider|divider|selnose [7] $end
$var wire 1 ;! Div0|auto_generated|divider|divider|selnose [6] $end
$var wire 1 <! Div0|auto_generated|divider|divider|selnose [5] $end
$var wire 1 =! Div0|auto_generated|divider|divider|selnose [4] $end
$var wire 1 >! Div0|auto_generated|divider|divider|selnose [3] $end
$var wire 1 ?! Div0|auto_generated|divider|divider|selnose [2] $end
$var wire 1 @! Div0|auto_generated|divider|divider|selnose [1] $end
$var wire 1 A! Div0|auto_generated|divider|divider|selnose [0] $end
$upscope $end
$upscope $end
$enddefinitions $end
#0
$dumpvars
0!
0"
0&
0%
0$
0#
0*
0)
0(
0'
0+
1,
x-
1.
1/
10
01
z2
z3
z4
05
06
07
08
09
0:
0;
0<
0=
0>
0?
0@
0A
0B
0C
0D
0E
0F
0G
0H
0I
0J
0K
1L
0M
0N
1O
0P
1Q
0R
0S
0T
1U
1V
0W
1X
0Y
1Z
1[
1\
0`
0_
0^
0]
0d
0c
0b
0a
0h
0g
0f
0e
z#!
z"!
z!!
z~
z}
z|
z{
zz
zy
zx
zw
1v
zu
zt
zs
zr
zq
zp
zo
zn
zm
zl
zk
zj
zi
zA!
z@!
z?!
z>!
z=!
z<!
z;!
z:!
z9!
z8!
z7!
z6!
15!
z4!
z3!
z2!
z1!
z0!
1/!
z.!
z-!
z,!
z+!
z*!
z)!
z(!
z'!
z&!
z%!
z$!
$end
#10000
1!
1?
1@
1]
1^
1_
1`
19
1:
1;
1<
1'
1(
1)
1*
#20000
1"
0!
0?
1=
1>
0@
1I
1J
#30000
1!
1?
1@
1h
0I
1A
0J
1B
#40000
0"
0!
0?
0=
0>
0@
0A
0B
1d
15
1W
0O
0v
1&
0\
1P
0Q
1S
1R
1T
0W
0V
0T
0/!
#50000
1!
1?
1@
0h
0]
0_
0:
0<
0'
0)
#60000
1"
0!
0?
1=
1>
0@
1I
1J
#70000
1!
1?
1@
1h
0I
1A
0J
1B
#80000
0"
0!
0?
0=
0>
0@
0A
0B
#90000
1!
1?
1@
0h
#100000
1"
0!
0?
1=
1>
0@
1I
1J
#110000
1!
1?
1@
1h
0I
1A
0J
1B
#120000
0"
0!
0?
0=
0>
0@
0A
0B
#130000
1!
1?
1@
0h
#140000
1"
0!
0?
1=
1>
0@
1I
1J
#150000
1!
1?
1@
1h
0I
1A
0J
1B
#160000
0"
0!
0?
0=
0>
0@
0A
0B
#170000
1!
1?
1@
0h
#180000
1"
0!
0?
1=
1>
0@
1I
1J
#190000
1!
1?
1@
1h
0I
1A
0J
1B
#200000
0"
0!
0?
0=
0>
0@
0A
0B
#210000
1!
1?
1@
0h
#220000
1"
0!
0?
1=
1>
0@
1I
1J
#230000
1!
1?
1@
1h
0I
1A
0J
1B
#240000
0"
0!
0?
0=
0>
0@
0A
0B
#250000
1!
1?
1@
0h
#260000
1"
0!
0?
1=
1>
0@
1I
1J
#270000
1!
1?
1@
1h
0I
1A
0J
1B
#280000
0"
0!
0?
0=
0>
0@
0A
0B
#290000
1!
1?
1@
0h
#300000
1"
0!
0?
1=
1>
0@
1I
1J
#310000
1!
1?
1@
1h
0I
1A
0J
1B
#320000
0"
0!
0?
0=
0>
0@
0A
0B
#330000
1!
1?
1@
0h
#340000
1"
0!
0?
1=
1>
0@
1I
1J
#350000
1!
1?
1@
1h
0I
1A
0J
1B
#360000
0"
0!
0?
0=
0>
0@
0A
0B
#370000
1!
1?
1@
0h
#380000
1"
0!
0?
1=
1>
0@
1I
1J
#390000
1!
1?
1@
1h
0I
1A
0J
1B
#400000
0"
0!
0?
0=
0>
0@
0A
0B
#410000
1!
1?
1@
0h
#420000
1"
0!
0?
1=
1>
0@
1I
1J
#430000
1!
1?
1@
1h
0I
1A
0J
1B
#440000
0"
0!
0?
0=
0>
0@
0A
0B
#450000
1!
1?
1@
0h
#460000
1"
0!
0?
1=
1>
0@
1I
1J
#470000
1!
1?
1@
1h
0I
1A
0J
1B
#480000
0"
0!
0?
0=
0>
0@
0A
0B
#490000
1!
1?
1@
0h
#500000
1"
0!
0?
1=
1>
0@
1I
1J
#510000
1!
1?
1@
1h
0I
1A
0J
1B
#520000
0"
0!
0?
0=
0>
0@
0A
0B
#530000
1!
1?
1@
0h
#540000
1"
0!
0?
1=
1>
0@
1I
1J
#550000
1!
1?
1@
1h
0I
1A
0J
1B
#560000
0"
0!
0?
0=
0>
0@
0A
0B
#570000
1!
1?
1@
0h
#580000
1"
0!
0?
1=
1>
0@
1I
1J
#590000
1!
1?
1@
1h
0I
1A
0J
1B
#600000
0"
0!
0?
0=
0>
0@
0A
0B
#610000
1!
1?
1@
0h
#620000
1"
0!
0?
1=
1>
0@
1I
1J
#630000
1!
1?
1@
1h
0I
1A
0J
1B
#640000
0"
0!
0?
0=
0>
0@
0A
0B
#650000
1!
1?
1@
0h
#660000
1"
0!
0?
1=
1>
0@
1I
1J
#670000
1!
1?
1@
1h
0I
1A
0J
1B
#680000
0"
0!
0?
0=
0>
0@
0A
0B
#690000
1!
1?
1@
0h
#700000
1"
0!
0?
1=
1>
0@
1I
1J
#710000
1!
1?
1@
1h
0I
1A
0J
1B
#720000
0"
0!
0?
0=
0>
0@
0A
0B
#730000
1!
1?
1@
0h
#740000
1"
0!
0?
1=
1>
0@
1I
1J
#750000
1!
1?
1@
1h
0I
1A
0J
1B
#760000
0"
0!
0?
0=
0>
0@
0A
0B
#770000
1!
1?
1@
0h
#780000
1"
0!
0?
1=
1>
0@
1I
1J
#790000
1!
1?
1@
1h
0I
1A
0J
1B
#800000
0"
0!
0?
0=
0>
0@
0A
0B
#810000
1!
1?
1@
0h
#820000
1"
0!
0?
1=
1>
0@
1I
1J
#830000
1!
1?
1@
1h
0I
1A
0J
1B
#840000
0"
0!
0?
0=
0>
0@
0A
0B
#850000
1!
1?
1@
0h
#860000
1"
0!
0?
1=
1>
0@
1I
1J
#870000
1!
1?
1@
1h
0I
1A
0J
1B
#880000
0"
0!
0?
0=
0>
0@
0A
0B
#890000
1!
1?
1@
0h
#900000
1"
0!
0?
1=
1>
0@
1I
1J
#910000
1!
1?
1@
1h
0I
1A
0J
1B
#920000
0"
0!
0?
0=
0>
0@
0A
0B
#930000
1!
1?
1@
0h
#940000
1"
0!
0?
1=
1>
0@
1I
1J
#950000
1!
1?
1@
1h
0I
1A
0J
1B
#960000
0"
0!
0?
0=
0>
0@
0A
0B
#970000
1!
1?
1@
0h
#980000
1"
0!
0?
1=
1>
0@
1I
1J
#990000
1!
1?
1@
1h
0I
1A
0J
1B
