simulation/qsim/FrequencyDetector.msim.vcd
$comment
	File created using the following command:
		vcd file FrequencyDetector.msim.vcd -direction
$end
$date
	Tue Nov 07 12:27:05 2023
$end
$version
	ModelSim Version 2020.1
$end
$timescale
	1ps
$end

$scope module FrequencyDetector_vlg_vec_tst $end
$var reg 1 ! clk $end
$var reg 1 " reset $end
$var wire 1 # count [25] $end
$var wire 1 $ count [24] $end
$var wire 1 % count [23] $end
$var wire 1 & count [22] $end
$var wire 1 ' count [21] $end
$var wire 1 ( count [20] $end
$var wire 1 ) count [19] $end
$var wire 1 * count [18] $end
$var wire 1 + count [17] $end
$var wire 1 , count [16] $end
$var wire 1 - count [15] $end
$var wire 1 . count [14] $end
$var wire 1 / count [13] $end
$var wire 1 0 count [12] $end
$var wire 1 1 count [11] $end
$var wire 1 2 count [10] $end
$var wire 1 3 count [9] $end
$var wire 1 4 count [8] $end
$var wire 1 5 count [7] $end
$var wire 1 6 count [6] $end
$var wire 1 7 count [5] $end
$var wire 1 8 count [4] $end
$var wire 1 9 count [3] $end
$var wire 1 : count [2] $end
$var wire 1 ; count [1] $end
$var wire 1 < count [0] $end

$scope module i1 $end
$var wire 1 = gnd $end
$var wire 1 > vcc $end
$var wire 1 ? unknown $end
$var tri1 1 @ devclrn $end
$var tri1 1 A devpor $end
$var tri1 1 B devoe $end
$var wire 1 C ~QUARTUS_CREATED_GND~I_combout $end
$var wire 1 D ~QUARTUS_CREATED_UNVM~~busy $end
$var wire 1 E ~QUARTUS_CREATED_ADC1~~eoc $end
$var wire 1 F ~QUARTUS_CREATED_ADC2~~eoc $end
$var wire 1 G count[0]~output_o $end
$var wire 1 H count[1]~output_o $end
$var wire 1 I count[2]~output_o $end
$var wire 1 J count[3]~output_o $end
$var wire 1 K count[4]~output_o $end
$var wire 1 L count[5]~output_o $end
$var wire 1 M count[6]~output_o $end
$var wire 1 N count[7]~output_o $end
$var wire 1 O count[8]~output_o $end
$var wire 1 P count[9]~output_o $end
$var wire 1 Q count[10]~output_o $end
$var wire 1 R count[11]~output_o $end
$var wire 1 S count[12]~output_o $end
$var wire 1 T count[13]~output_o $end
$var wire 1 U count[14]~output_o $end
$var wire 1 V count[15]~output_o $end
$var wire 1 W count[16]~output_o $end
$var wire 1 X count[17]~output_o $end
$var wire 1 Y count[18]~output_o $end
$var wire 1 Z count[19]~output_o $end
$var wire 1 [ count[20]~output_o $end
$var wire 1 \ count[21]~output_o $end
$var wire 1 ] count[22]~output_o $end
$var wire 1 ^ count[23]~output_o $end
$var wire 1 _ count[24]~output_o $end
$var wire 1 ` count[25]~output_o $end
$var wire 1 a clk~input_o $end
$var wire 1 b clk~inputclkctrl_outclk $end
$var wire 1 c comb_3|count_reg[0]~26_combout $end
$var wire 1 d reset~input_o $end
$var wire 1 e comb_3|count_reg[0]~27 $end
$var wire 1 f comb_3|count_reg[1]~28_combout $end
$var wire 1 g comb_3|count_reg[1]~29 $end
$var wire 1 h comb_3|count_reg[2]~30_combout $end
$var wire 1 i comb_3|count_reg[2]~31 $end
$var wire 1 j comb_3|count_reg[3]~32_combout $end
$var wire 1 k comb_3|count_reg[3]~33 $end
$var wire 1 l comb_3|count_reg[4]~34_combout $end
$var wire 1 m comb_3|count_reg[4]~35 $end
$var wire 1 n comb_3|count_reg[5]~36_combout $end
$var wire 1 o comb_3|count_reg[5]~37 $end
$var wire 1 p comb_3|count_reg[6]~38_combout $end
$var wire 1 q comb_3|count_reg[6]~39 $end
$var wire 1 r comb_3|count_reg[7]~40_combout $end
$var wire 1 s comb_3|count_reg[7]~41 $end
$var wire 1 t comb_3|count_reg[8]~42_combout $end
$var wire 1 u comb_3|count_reg[8]~43 $end
$var wire 1 v comb_3|count_reg[9]~44_combout $end
$var wire 1 w comb_3|count_reg[9]~45 $end
$var wire 1 x comb_3|count_reg[10]~46_combout $end
$var wire 1 y comb_3|count_reg[10]~47 $end
$var wire 1 z comb_3|count_reg[11]~48_combout $end
$var wire 1 { comb_3|count_reg[11]~49 $end
$var wire 1 | comb_3|count_reg[12]~50_combout $end
$var wire 1 } comb_3|count_reg[12]~51 $end
$var wire 1 ~ comb_3|count_reg[13]~52_combout $end
$var wire 1 !! comb_3|count_reg[13]~53 $end
$var wire 1 "! comb_3|count_reg[14]~54_combout $end
$var wire 1 #! comb_3|count_reg[14]~55 $end
$var wire 1 $! comb_3|count_reg[15]~56_combout $end
$var wire 1 %! comb_3|count_reg[15]~57 $end
$var wire 1 &! comb_3|count_reg[16]~58_combout $end
$var wire 1 '! comb_3|count_reg[16]~59 $end
$var wire 1 (! comb_3|count_reg[17]~60_combout $end
$var wire 1 )! comb_3|count_reg[17]~61 $end
$var wire 1 *! comb_3|count_reg[18]~62_combout $end
$var wire 1 +! comb_3|count_reg[18]~63 $end
$var wire 1 ,! comb_3|count_reg[19]~64_combout $end
$var wire 1 -! comb_3|count_reg[19]~65 $end
$var wire 1 .! comb_3|count_reg[20]~66_combout $end
$var wire 1 /! comb_3|count_reg[20]~67 $end
$var wire 1 0! comb_3|count_reg[21]~68_combout $end
$var wire 1 1! comb_3|count_reg[21]~69 $end
$var wire 1 2! comb_3|count_reg[22]~70_combout $end
$var wire 1 3! comb_3|count_reg[22]~71 $end
$var wire 1 4! comb_3|count_reg[23]~72_combout $end
$var wire 1 5! comb_3|count_reg[23]~73 $end
$var wire 1 6! comb_3|count_reg[24]~74_combout $end
$var wire 1 7! comb_3|always0~6_combout $end
$var wire 1 8! comb_3|count_reg[24]~75 $end
$var wire 1 9! comb_3|count_reg[25]~76_combout $end
$var wire 1 :! comb_3|always0~0_combout $end
$var wire 1 ;! comb_3|always0~1_combout $end
$var wire 1 <! comb_3|always0~2_combout $end
$var wire 1 =! comb_3|always0~3_combout $end
$var wire 1 >! comb_3|always0~4_combout $end
$var wire 1 ?! comb_3|always0~5_combout $end
$var wire 1 @! comb_3|always0~7_combout $end
$var wire 1 A! comb_3|count_reg [25] $end
$var wire 1 B! comb_3|count_reg [24] $end
$var wire 1 C! comb_3|count_reg [23] $end
$var wire 1 D! comb_3|count_reg [22] $end
$var wire 1 E! comb_3|count_reg [21] $end
$var wire 1 F! comb_3|count_reg [20] $end
$var wire 1 G! comb_3|count_reg [19] $end
$var wire 1 H! comb_3|count_reg [18] $end
$var wire 1 I! comb_3|count_reg [17] $end
$var wire 1 J! comb_3|count_reg [16] $end
$var wire 1 K! comb_3|count_reg [15] $end
$var wire 1 L! comb_3|count_reg [14] $end
$var wire 1 M! comb_3|count_reg [13] $end
$var wire 1 N! comb_3|count_reg [12] $end
$var wire 1 O! comb_3|count_reg [11] $end
$var wire 1 P! comb_3|count_reg [10] $end
$var wire 1 Q! comb_3|count_reg [9] $end
$var wire 1 R! comb_3|count_reg [8] $end
$var wire 1 S! comb_3|count_reg [7] $end
$var wire 1 T! comb_3|count_reg [6] $end
$var wire 1 U! comb_3|count_reg [5] $end
$var wire 1 V! comb_3|count_reg [4] $end
$var wire 1 W! comb_3|count_reg [3] $end
$var wire 1 X! comb_3|count_reg [2] $end
$var wire 1 Y! comb_3|count_reg [1] $end
$var wire 1 Z! comb_3|count_reg [0] $end
$upscope $end
$upscope $end
$enddefinitions $end
#0
$dumpvars
0!
0"
0<
0;
0:
09
08
07
06
05
04
03
02
01
00
0/
0.
0-
0,
0+
0*
0)
0(
0'
0&
0%
0$
0#
0=
1>
x?
1@
1A
1B
0C
zD
zE
zF
0G
0H
0I
0J
0K
0L
0M
0N
0O
0P
0Q
0R
0S
0T
0U
0V
0W
0X
0Y
0Z
0[
0\
0]
0^
0_
0`
0a
0b
1c
0d
0e
0f
1g
0h
0i
0j
1k
0l
0m
0n
1o
0p
0q
0r
1s
0t
0u
0v
1w
0x
0y
0z
1{
0|
0}
0~
1!!
0"!
0#!
0$!
1%!
0&!
0'!
0(!
1)!
0*!
0+!
0,!
1-!
0.!
0/!
00!
11!
02!
03!
04!
15!
06!
17!
08!
09!
1:!
1;!
1<!
1=!
1>!
1?!
1@!
0Z!
0Y!
0X!
0W!
0V!
0U!
0T!
0S!
0R!
0Q!
0P!
0O!
0N!
0M!
0L!
0K!
0J!
0I!
0H!
0G!
0F!
0E!
0D!
0C!
0B!
0A!
$end
#10000
1!
1a
1b
#20000
1"
0!
0a
1d
0b
0@!
#30000
1!
1a
1b
1Z!
1G
1e
1<
0c
1f
#40000
0!
0a
0b
#50000
1!
1a
1b
0Z!
1Y!
1H
0G
0e
0g
0<
1;
1c
0f
1g
1f
1h
0h
#60000
0!
0a
0b
#70000
1!
1a
1b
1Z!
1G
1e
1<
0c
0g
0f
1h
#80000
0!
0a
0b
#90000
1!
1a
1b
0Z!
1X!
0Y!
0H
1I
0G
0e
1i
1g
0<
1:
0;
1c
0h
1f
0i
0f
1j
1h
0j
#100000
0!
0a
0b
#110000
1!
1a
1b
1Z!
1G
1e
1<
0c
1f
#120000
0!
0a
0b
#130000
1!
1a
1b
0Z!
1Y!
1H
0G
0e
0g
0<
1;
1c
0f
1g
1i
1f
0h
0i
1h
1j
0j
#140000
0!
0a
0b
#150000
1!
1a
1b
1Z!
1G
1e
1<
0c
0g
0f
1i
0h
1j
#160000
0!
0a
0b
#170000
1!
1a
1b
0Z!
1W!
0X!
0Y!
0H
0I
1J
0G
0e
0k
0i
1g
0<
19
0:
0;
1c
0j
1h
1f
1k
0f
1l
1j
0h
0l
#180000
0!
0a
0b
#190000
1!
1a
1b
1Z!
1G
1e
1<
0c
1f
#200000
0!
0a
0b
#210000
1!
1a
1b
0Z!
1Y!
1H
0G
0e
0g
0<
1;
1c
0f
1g
1f
1h
0h
#220000
0!
0a
0b
#230000
1!
1a
1b
1Z!
1G
1e
1<
0c
0g
0f
1h
#240000
0!
0a
0b
#250000
1!
1a
1b
0Z!
1X!
0Y!
0H
1I
0G
0e
1i
1g
0<
1:
0;
1c
0h
1f
0k
0i
0f
0j
1h
1k
1l
1j
0l
#260000
0!
0a
0b
#270000
1!
1a
1b
1Z!
1G
1e
1<
0c
1f
#280000
0!
0a
0b
#290000
1!
1a
1b
0Z!
1Y!
1H
0G
0e
0g
0<
1;
1c
0f
1g
1i
1f
0h
0i
0k
1h
0j
1k
1j
1l
0l
#300000
0!
0a
0b
#310000
1!
1a
1b
1Z!
1G
1e
1<
0c
0g
0f
1i
0h
0k
0j
1l
#320000
0!
0a
0b
#330000
1!
1a
1b
0Z!
1V!
0W!
0X!
0Y!
0H
0I
0J
1K
0G
0e
1m
1k
0i
1g
0<
18
09
0:
0;
1c
0l
1j
1h
1f
0m
0f
1n
1l
0j
0h
0n
#340000
0!
0a
0b
#350000
1!
1a
1b
1Z!
1G
1e
1<
0c
1f
#360000
0!
0a
0b
#370000
1!
1a
1b
0Z!
1Y!
1H
0G
0e
0g
0<
1;
1c
0f
1g
1f
1h
0h
#380000
0!
0a
0b
#390000
1!
1a
1b
1Z!
1G
1e
1<
0c
0g
0f
1h
#400000
0!
0a
0b
#410000
1!
1a
1b
0Z!
1X!
0Y!
0H
1I
0G
0e
1i
1g
0<
1:
0;
1c
0h
1f
0i
0f
1j
1h
0j
#420000
0!
0a
0b
#430000
1!
1a
1b
1Z!
1G
1e
1<
0c
1f
#440000
0!
0a
0b
#450000
1!
1a
1b
0Z!
1Y!
1H
0G
0e
0g
0<
1;
1c
0f
1g
1i
1f
0h
0i
1h
1j
0j
#460000
0!
0a
0b
#470000
1!
1a
1b
1Z!
1G
1e
1<
0c
0g
0f
1i
0h
1j
#480000
0!
0a
0b
#490000
1!
1a
1b
0Z!
1W!
0X!
0Y!
0H
0I
1J
0G
0e
0k
0i
1g
0<
19
0:
0;
1c
0j
1h
1f
1m
1k
0f
0l
1j
0h
0m
1n
1l
0n
#500000
0!
0a
0b
#510000
1!
1a
1b
1Z!
1G
1e
1<
0c
1f
#520000
0!
0a
0b
#530000
1!
1a
1b
0Z!
1Y!
1H
0G
0e
0g
0<
1;
1c
0f
1g
1f
1h
0h
#540000
0!
0a
0b
#550000
1!
1a
1b
1Z!
1G
1e
1<
0c
0g
0f
1h
#560000
0!
0a
0b
#570000
1!
1a
1b
0Z!
1X!
0Y!
0H
1I
0G
0e
1i
1g
0<
1:
0;
1c
0h
1f
0k
0i
0f
0j
1h
1m
1k
0l
1j
0m
1n
1l
0n
#580000
0!
0a
0b
#590000
1!
1a
1b
1Z!
1G
1e
1<
0c
1f
#600000
0!
0a
0b
#610000
1!
1a
1b
0Z!
1Y!
1H
0G
0e
0g
0<
1;
1c
0f
1g
1i
1f
0h
0i
0k
1h
0j
1k
1m
1j
0l
0m
1l
1n
0n
#620000
0!
0a
0b
#630000
1!
1a
1b
1Z!
1G
1e
1<
0c
0g
0f
1i
0h
0k
0j
1m
0l
1n
#640000
0!
0a
0b
#650000
1!
1a
1b
0Z!
1U!
0V!
0W!
0X!
0Y!
0H
0I
0J
0K
1L
0G
0e
0o
0m
1k
0i
1g
0<
17
08
09
0:
0;
1c
0n
1l
1j
1h
1f
1o
0f
1p
1n
0l
0j
0h
0p
#660000
0!
0a
0b
#670000
1!
1a
1b
1Z!
1G
1e
1<
0c
1f
#680000
0!
0a
0b
#690000
1!
1a
1b
0Z!
1Y!
1H
0G
0e
0g
0<
1;
1c
0f
1g
1f
1h
0h
#700000
0!
0a
0b
#710000
1!
1a
1b
1Z!
1G
1e
1<
0c
0g
0f
1h
#720000
0!
0a
0b
#730000
1!
1a
1b
0Z!
1X!
0Y!
0H
1I
0G
0e
1i
1g
0<
1:
0;
1c
0h
1f
0i
0f
1j
1h
0j
#740000
0!
0a
0b
#750000
1!
1a
1b
1Z!
1G
1e
1<
0c
1f
#760000
0!
0a
0b
#770000
1!
1a
1b
0Z!
1Y!
1H
0G
0e
0g
0<
1;
1c
0f
1g
1i
1f
0h
0i
1h
1j
0j
#780000
0!
0a
0b
#790000
1!
1a
1b
1Z!
1G
1e
1<
0c
0g
0f
1i
0h
1j
#800000
0!
0a
0b
#810000
1!
1a
1b
0Z!
1W!
0X!
0Y!
0H
0I
1J
0G
0e
0k
0i
1g
0<
19
0:
0;
1c
0j
1h
1f
1k
0f
1l
1j
0h
0l
#820000
0!
0a
0b
#830000
1!
1a
1b
1Z!
1G
1e
1<
0c
1f
#840000
0!
0a
0b
#850000
1!
1a
1b
0Z!
1Y!
1H
0G
0e
0g
0<
1;
1c
0f
1g
1f
1h
0h
#860000
0!
0a
0b
#870000
1!
1a
1b
1Z!
1G
1e
1<
0c
0g
0f
1h
#880000
0!
0a
0b
#890000
1!
1a
1b
0Z!
1X!
0Y!
0H
1I
0G
0e
1i
1g
0<
1:
0;
1c
0h
1f
0k
0i
0f
0j
1h
1k
1l
1j
0l
#900000
0!
0a
0b
#910000
1!
1a
1b
1Z!
1G
1e
1<
0c
1f
#920000
0!
0a
0b
#930000
1!
1a
1b
0Z!
1Y!
1H
0G
0e
0g
0<
1;
1c
0f
1g
1i
1f
0h
0i
0k
1h
0j
1k
1j
1l
0l
#940000
0!
0a
0b
#950000
1!
1a
1b
1Z!
1G
1e
1<
0c
0g
0f
1i
0h
0k
0j
1l
#960000
0!
0a
0b
#970000
1!
1a
1b
0Z!
1V!
0W!
0X!
0Y!
0H
0I
0J
1K
0G
0e
1m
1k
0i
1g
0<
18
09
0:
0;
1c
0l
1j
1h
1f
0o
0m
0f
0n
1l
0j
0h
1o
1p
1n
0p
#980000
0!
0a
0b
#990000
1!
1a
1b
1Z!
1G
1e
1<
0c
1f
